SystemVerilog/con01.02_simple_circuit/simple_circuit.vcd
$date
	Wed Oct 16 18:10:14 2024
$end
$version
	Icarus Verilog
$end
$timescale
	1s
$end
$scope module testbench $end
$var wire 1 ! out_q $end
$var reg 1 " in_a $end
$var reg 1 # in_b $end
$var reg 1 $ in_c $end
$scope module circ $end
$var wire 1 " in_a $end
$var wire 1 # in_b $end
$var wire 1 $ in_c $end
$var wire 1 ! out_q $end
$upscope $end
$upscope $end
$enddefinitions $end
$comment Show the parameter values. $end
$dumpall
$end
#0
$dumpvars
0$
0#
0"
0!
$end
#2
1"
#4
1!
1#
0"
#6
0!
1"
#8
1!
1$
0#
0"
#10
1"
#12
1#
0"
#14
1"
